{
  "_meta": {
    "models": {
      "ActivityEntry": "A single record of an agent's response, capturing the full interaction details including message content, token usage, cost, timing, and metadata."
    },
    "relationships": [
      "Each ActivityEntry belongs to one Agent (referenced by agentId, agentName, agentEmoji)",
      "Each ActivityEntry references the model, channel, and optionally a skill used during the interaction"
    ]
  },
  "activities": [
    {
      "id": "act-001",
      "agentId": "agent-nova",
      "agentName": "Nova",
      "agentEmoji": "\ud83c\udf1f",
      "timestamp": "2026-02-20T14:32:18Z",
      "message": "I've compiled the weekly engagement report. Active users are up 12% week-over-week, with the highest growth in the mobile segment. Three key trends worth noting: push notification opt-ins increased after the onboarding flow change, average session duration dropped slightly on desktop, and the new search feature has a 34% adoption rate in its first week.",
      "model": "claude-sonnet-4-5-20250929",
      "inputTokens": 1842,
      "outputTokens": 2156,
      "totalTokens": 3998,
      "cost": 0.0247,
      "channel": "slack",
      "skill": "analytics",
      "sessionId": "sess-a1b2c3",
      "responseTimeMs": 3420
    },
    {
      "id": "act-002",
      "agentId": "agent-bolt",
      "agentName": "Bolt",
      "agentEmoji": "\u26a1",
      "timestamp": "2026-02-20T14:28:05Z",
      "message": "DNS propagation complete for staging.example.com. All health checks passing.",
      "model": "claude-haiku-4-5-20251001",
      "inputTokens": 456,
      "outputTokens": 312,
      "totalTokens": 768,
      "cost": 0.0008,
      "channel": "api",
      "skill": "devops",
      "sessionId": "sess-d4e5f6",
      "responseTimeMs": 1105
    },
    {
      "id": "act-003",
      "agentId": "agent-sage",
      "agentName": "Sage",
      "agentEmoji": "\ud83e\uddd9",
      "timestamp": "2026-02-20T13:55:42Z",
      "message": "Based on the quarterly revenue data, I recommend focusing Q2 marketing spend on the enterprise segment. The SMB pipeline is healthy with organic growth, but enterprise deals have a 3.2x higher LTV and the current pipeline coverage is only 1.8x — below the 2.5x target. I've drafted three campaign briefs targeting enterprise personas and attached them to the shared drive.",
      "model": "claude-opus-4-6",
      "inputTokens": 4210,
      "outputTokens": 3875,
      "totalTokens": 8085,
      "cost": 0.1124,
      "channel": "slack",
      "skill": "strategy",
      "sessionId": "sess-g7h8i9",
      "responseTimeMs": 8932
    },
    {
      "id": "act-004",
      "agentId": "agent-nova",
      "agentName": "Nova",
      "agentEmoji": "\ud83c\udf1f",
      "timestamp": "2026-02-20T13:41:10Z",
      "message": "Daily standup summary posted to #team-updates. 4 blockers flagged, 2 resolved since yesterday.",
      "model": "claude-haiku-4-5-20251001",
      "inputTokens": 890,
      "outputTokens": 445,
      "totalTokens": 1335,
      "cost": 0.0014,
      "channel": "slack",
      "skill": null,
      "sessionId": "sess-j1k2l3",
      "responseTimeMs": 1650
    },
    {
      "id": "act-005",
      "agentId": "agent-pixel",
      "agentName": "Pixel",
      "agentEmoji": "\ud83c\udfa8",
      "timestamp": "2026-02-20T12:18:33Z",
      "message": "I've generated the social media assets for the product launch. The set includes 4 Instagram posts (1080x1080), 2 Twitter/X headers (1500x500), and 1 LinkedIn banner (1584x396). All files follow the updated brand guidelines with the new gradient treatment. Preview links have been sent to the #design channel for review.",
      "model": "claude-sonnet-4-5-20250929",
      "inputTokens": 2100,
      "outputTokens": 1890,
      "totalTokens": 3990,
      "cost": 0.0243,
      "channel": "discord",
      "skill": "design",
      "sessionId": "sess-m4n5o6",
      "responseTimeMs": 5210
    },
    {
      "id": "act-006",
      "agentId": "agent-bolt",
      "agentName": "Bolt",
      "agentEmoji": "\u26a1",
      "timestamp": "2026-02-20T11:45:00Z",
      "message": "Deployed v2.4.1 to production. Zero-downtime rolling update across 3 pods. Rollback artifact saved.",
      "model": "claude-haiku-4-5-20251001",
      "inputTokens": 678,
      "outputTokens": 289,
      "totalTokens": 967,
      "cost": 0.001,
      "channel": "api",
      "skill": "devops",
      "sessionId": "sess-p7q8r9",
      "responseTimeMs": 2340
    },
    {
      "id": "act-007",
      "agentId": "agent-luna",
      "agentName": "Luna",
      "agentEmoji": "\ud83c\udf19",
      "timestamp": "2026-02-20T10:30:15Z",
      "message": "Customer ticket #4892 resolved. The user was experiencing intermittent 403 errors due to an expired API key rotation. I've walked them through regenerating their key and confirmed the issue is resolved. Response satisfaction: positive. Escalation: none.",
      "model": "claude-sonnet-4-5-20250929",
      "inputTokens": 1560,
      "outputTokens": 1120,
      "totalTokens": 2680,
      "cost": 0.0165,
      "channel": "zendesk",
      "skill": "support",
      "sessionId": "sess-s1t2u3",
      "responseTimeMs": 4100
    },
    {
      "id": "act-008",
      "agentId": "agent-sage",
      "agentName": "Sage",
      "agentEmoji": "\ud83e\uddd9",
      "timestamp": "2026-02-20T09:15:44Z",
      "message": "Competitive analysis updated. Two new entrants identified in the mid-market segment.",
      "model": "claude-sonnet-4-5-20250929",
      "inputTokens": 3450,
      "outputTokens": 2890,
      "totalTokens": 6340,
      "cost": 0.0421,
      "channel": "slack",
      "skill": "research",
      "sessionId": "sess-v4w5x6",
      "responseTimeMs": 7650
    },
    {
      "id": "act-009",
      "agentId": "agent-pixel",
      "agentName": "Pixel",
      "agentEmoji": "\ud83c\udfa8",
      "timestamp": "2026-02-19T17:22:08Z",
      "message": "Brand audit complete. I've reviewed 847 assets across the design system, website, and marketing materials. Key findings: 23 instances of the deprecated logo variant still in use, 8 pages using the old color palette, and 3 email templates with inconsistent typography. Full report with screenshots and recommended fixes is in the shared doc.",
      "model": "claude-opus-4-6",
      "inputTokens": 5200,
      "outputTokens": 4100,
      "totalTokens": 9300,
      "cost": 0.1395,
      "channel": "slack",
      "skill": "design",
      "sessionId": "sess-y7z8a9",
      "responseTimeMs": 12450
    },
    {
      "id": "act-010",
      "agentId": "agent-luna",
      "agentName": "Luna",
      "agentEmoji": "\ud83c\udf19",
      "timestamp": "2026-02-19T16:05:30Z",
      "message": "Processed 14 support tickets in the last hour. 12 resolved, 2 escalated to engineering (both related to the webhook delivery delay reported in incident #312). Average first-response time: 42 seconds. Customer satisfaction scores: 4.8/5.0 average.",
      "model": "claude-sonnet-4-5-20250929",
      "inputTokens": 2340,
      "outputTokens": 1675,
      "totalTokens": 4015,
      "cost": 0.0251,
      "channel": "zendesk",
      "skill": "support",
      "sessionId": "sess-b1c2d3",
      "responseTimeMs": 3890
    },
    {
      "id": "act-011",
      "agentId": "agent-bolt",
      "agentName": "Bolt",
      "agentEmoji": "\u26a1",
      "timestamp": "2026-02-19T14:50:22Z",
      "message": "SSL certificates renewed for 5 domains. All expiry dates pushed to 2027-02-19. No downtime recorded during rotation.",
      "model": "claude-haiku-4-5-20251001",
      "inputTokens": 520,
      "outputTokens": 198,
      "totalTokens": 718,
      "cost": 0.0007,
      "channel": "api",
      "skill": "devops",
      "sessionId": "sess-e4f5g6",
      "responseTimeMs": 890
    },
    {
      "id": "act-012",
      "agentId": "agent-nova",
      "agentName": "Nova",
      "agentEmoji": "\ud83c\udf1f",
      "timestamp": "2026-02-19T11:20:00Z",
      "message": "Content calendar for March drafted and shared. 22 posts planned across 4 channels. Highlights: product launch series (Mar 5-9), customer spotlight week (Mar 17-21), and the developer conference live coverage (Mar 28-30). All drafts are in review status awaiting approval.",
      "model": "claude-sonnet-4-5-20250929",
      "inputTokens": 1980,
      "outputTokens": 2450,
      "totalTokens": 4430,
      "cost": 0.0278,
      "channel": "slack",
      "skill": null,
      "sessionId": "sess-h7i8j9",
      "responseTimeMs": 4560
    }
  ],
  "filters": {
    "agents": [
      { "id": "agent-nova", "name": "Nova", "emoji": "\ud83c\udf1f" },
      { "id": "agent-bolt", "name": "Bolt", "emoji": "\u26a1" },
      { "id": "agent-sage", "name": "Sage", "emoji": "\ud83e\uddd9" },
      { "id": "agent-pixel", "name": "Pixel", "emoji": "\ud83c\udfa8" },
      { "id": "agent-luna", "name": "Luna", "emoji": "\ud83c\udf19" }
    ],
    "models": [
      "claude-opus-4-6",
      "claude-sonnet-4-5-20250929",
      "claude-haiku-4-5-20251001"
    ],
    "channels": ["slack", "api", "discord", "zendesk"],
    "skills": ["analytics", "devops", "strategy", "design", "support", "research"]
  },
  "pagination": {
    "total": 1247,
    "page": 1,
    "pageSize": 25,
    "totalPages": 50
  }
}
